0 0.809222532588454 0.6968994413407821 0.333826815642458 0.17003724394785802
0 0.4711824953445065 0.696703910614525 0.3467411545623831 0.17459962756052205
0 0.8311964618249535 0.885223463687151 0.284292364990689 0.17301675977653597
0 0.5198486964618254 0.4808659217877095 0.22974394785847296 0.29648044692737496
0 0.518796554934823 0.885651769087523 0.35004189944133995 0.18486033519553002
0 0.16575651769087552 0.7190502793296085 0.298291433891993 0.165251396648045
0 0.171503724394786 0.8930633147113596 0.343007448789572 0.14977653631284904
0 0.8008961824953444 0.49069832402234603 0.313477653631285 0.18135940409683404
0 0.194229515828678 0.49783985102420847 0.388459031657356 0.18860335195530697
0 0.8009404096834265 0.324608938547486 0.329357541899441 0.16024208566108
0 0.15622905027932935 0.10014897579143395 0.27261638733705734 0.16472998137802608
0 0.4575325884543765 0.10461824953445086 0.33206703910614505 0.1393668528864063
0 0.8226163873370576 0.1235288640595905 0.354767225325885 0.198230912476723
0 0.171203445065177 0.298687150837989 0.342406890130354 0.18054003724394801
0 0.462274208566108 0.2769273743016755 0.35090782122905 0.141973929236499
